Sun Jan 17 18:17:16 CET 2021: Successfully retrieved current directory. Executed in 0,00 ms.
Sun Jan 17 18:17:28 CET 2021: Sorted directory by ALL. Executed in 0,61 ms.
Sun Jan 17 18:17:40 CET 2021: Successfully changed directory. Executed in 0,06 ms.
Sun Jan 17 18:17:54 CET 2021: Sorted directory by ALL. Executed in 0,28 ms.
Sun Jan 17 18:18:34 CET 2021: Successfully changed directory. Executed in 0,03 ms.
Sun Jan 17 18:18:37 CET 2021: Sorted directory by ALL. Executed in 209,88 ms.
Sun Jan 17 18:19:07 CET 2021: Sorted directory by EXTENSION. Executed in 1,10 ms.
Sun Jan 17 18:19:22 CET 2021: Sorted directory by FOLDERS. Executed in 0,66 ms.
Sun Jan 17 18:19:30 CET 2021: No open file to display a file name. Executed in 0,00 ms.
Sun Jan 17 18:19:36 CET 2021: No open file to print! Executed in 0,00 ms.
Mon Jan 18 02:18:29 CET 2021: Successfully retrieved current directory. Executed in 0.00 ms.
Mon Jan 18 02:19:16 CET 2021: Successfully changed directory. Executed in 0.35 ms.
Mon Jan 18 02:19:22 CET 2021: Sorted directory by ALL. Executed in 24.50 ms.
Mon Jan 18 10:23:08 CET 2021: Successfully retrieved current directory. Executed in 0.00 ms.
Mon Jan 18 10:23:21 CET 2021: Successfully changed directory. Executed in 0.18 ms.
Mon Jan 18 10:23:24 CET 2021: Successfully retrieved current directory. Executed in 0.00 ms.
Mon Jan 18 10:24:01 CET 2021: Successfully changed directory. Executed in 0.20 ms.
Mon Jan 18 10:24:04 CET 2021: Sorted directory by ALL. Executed in 10.83 ms.
Mon Jan 18 10:24:29 CET 2021: Sorted directory by FILES. Executed in 8.86 ms.
Mon Jan 18 10:25:00 CET 2021: Sorted directory by EXTENSION. Executed in 3.70 ms.
Mon Jan 18 10:33:46 CET 2021: Successfully changed directory. Executed in 0.20 ms.
Mon Jan 18 10:33:54 CET 2021: Sorted directory by EXTENSION. Executed in 4.56 ms.
Mon Jan 18 10:34:26 CET 2021: Successfully changed directory. Executed in 0.21 ms.
Mon Jan 18 10:34:31 CET 2021: Sorted directory by EXTENSION. Executed in 4.42 ms.
Mon Jan 18 10:34:49 CET 2021: Sorted directory by ALL. Executed in 10.23 ms.
Mon Jan 18 10:35:46 CET 2021: Sorted directory by ALL. Executed in 9.76 ms.
Mon Jan 18 10:35:52 CET 2021: Sorted directory by FOLDERS. Executed in 9.52 ms.
